Estimating trends
…
Valley = eglinton and hollyford

Control =

Control =

trip = trip.no

true.date = Date

var = raw data parameter

4.1 Reduce dataset

# A tibble: 144 x 9
        N lcl.N ucl.N var     grid   Control Valley    trip grid.n
    <dbl> <dbl> <dbl> <chr>   <chr>  <chr>   <fct>    <dbl>  <dbl>
 1  85.2     53   114 N[1,1]  egl M1 Yes     Eglinton     1      1
 2 141.     103   200 N[2,1]  egl M1 Yes     Eglinton     2      1
 3 126.     100   162 N[3,1]  egl M1 Yes     Eglinton     3      1
 4  23.8     22    28 N[4,1]  egl M1 Yes     Eglinton     4      1
 5  89.5     57   125 N[5,1]  egl M1 Yes     Eglinton     5      1
 6 133.      88   179 N[6,1]  egl M1 Yes     Eglinton     6      1
 7 122.      93   164 N[7,1]  egl M1 Yes     Eglinton     7      1
 8  31.7     25    43 N[8,1]  egl M1 Yes     Eglinton     8      1
 9  17.8     13    26 N[9,1]  egl M1 Yes     Eglinton     9      1
10   1.73     0     5 N[10,1] egl M1 Yes     Eglinton    10      1
# ... with 134 more rows

4.1.1 Wrangling

# A tibble: 144 x 34
        N  se.N lcl.N ucl.N var   grid   trip grid.n trip.no valley control
    <dbl> <dbl> <dbl> <dbl> <chr> <chr> <dbl>  <dbl>   <dbl> <chr>  <chr>  
 1  85.2  17.3     53   114 N[1,~ egl ~     1      1       1 egl    control
 2 141.   24.8    103   200 N[2,~ egl ~     2      1       2 egl    control
 3 126.   15.7    100   162 N[3,~ egl ~     3      1       3 egl    control
 4  23.8   1.66    22    28 N[4,~ egl ~     4      1       4 egl    control
 5  89.5  18.5     57   125 N[5,~ egl ~     5      1       5 egl    control
 6 133.   24.6     88   179 N[6,~ egl ~     6      1       6 egl    control
 7 122.   18.1     93   164 N[7,~ egl ~     7      1       7 egl    control
 8  31.7   4.55    25    43 N[8,~ egl ~     8      1       8 egl    control
 9  17.8   3.50    13    26 N[9,~ egl ~     9      1       9 egl    control
10   1.73  1.48     0     5 N[10~ egl ~    10      1      10 egl    control
# ... with 134 more rows, and 23 more variables: Valley <fct>, year <dbl>,
#   month <chr>, cum.seed <dbl>, seed.account.N <dbl>, log.seed <dbl>,
#   valley.rep <chr>, grid.rats <chr>, Conditions <chr>, grouping.1 <chr>,
#   grouping.2 <chr>, grouping.3 <chr>, grouping.4 <chr>,
#   true.date <date>, treat.six <chr>, Rats <chr>, Control <chr>,
#   Date <date>, Treatments <chr>, Prediction <chr>, n <dbl>,
#   rat.mna <dbl>, lag.rat.mna <dbl>

4.1.2 Extracting rates from model outputs

# A tibble: 144 x 38
        N  se.N lcl.N ucl.N var   grid   trip grid.n trip.no valley control
    <dbl> <dbl> <dbl> <dbl> <chr> <chr> <dbl>  <dbl>   <dbl> <chr>  <chr>  
 1  85.2  17.3     53   114 N[1,~ egl ~     1      1       1 egl    control
 2 141.   24.8    103   200 N[2,~ egl ~     2      1       2 egl    control
 3 126.   15.7    100   162 N[3,~ egl ~     3      1       3 egl    control
 4  23.8   1.66    22    28 N[4,~ egl ~     4      1       4 egl    control
 5  89.5  18.5     57   125 N[5,~ egl ~     5      1       5 egl    control
 6 133.   24.6     88   179 N[6,~ egl ~     6      1       6 egl    control
 7 122.   18.1     93   164 N[7,~ egl ~     7      1       7 egl    control
 8  31.7   4.55    25    43 N[8,~ egl ~     8      1       8 egl    control
 9  17.8   3.50    13    26 N[9,~ egl ~     9      1       9 egl    control
10   1.73  1.48     0     5 N[10~ egl ~    10      1      10 egl    control
# ... with 134 more rows, and 27 more variables: Valley <fct>, year <dbl>,
#   month <chr>, cum.seed <dbl>, seed.account.N <dbl>, log.seed <dbl>,
#   valley.rep <chr>, grid.rats <chr>, Conditions <chr>, grouping.1 <chr>,
#   grouping.2 <chr>, grouping.3 <chr>, grouping.4 <chr>,
#   true.date <date>, treat.six <chr>, Rats <chr>, Control <chr>,
#   Date <date>, Treatments <chr>, Prediction <chr>, n <dbl>,
#   rat.mna <dbl>, lag.rat.mna <dbl>, mean.r <dbl>, se.r <dbl>,
#   lcl.r <dbl>, ucl.r <dbl>
…
